<svg width="24" height="24" viewBox="0 0 24 24" fill="none" xmlns="http://www.w3.org/2000/svg">
<g clip-path="url(#clip0_3703_98)">
<path d="M12 13.172L16.95 8.22198L18.364 9.63598L12 16L5.636 9.63598L7.05 8.22198L12 13.172Z" fill="#454545"/>
</g>
<defs>
<clipPath id="clip0_3703_98">
<rect width="24" height="24" fill="white"/>
</clipPath>
</defs>
</svg>
